…
## Part 1: Computations & Concepts

### Question 1

``` r
winter_data <- bikeshare %>%
  filter(season == 1) %>%
  mutate(temp_c = temp *41)
winter_data
```

    ## # A tibble: 181 x 17
    ##    instant dteday     season    yr  mnth holiday weekday workingday
    ##      <dbl> <date>      <dbl> <dbl> <dbl>   <dbl>   <dbl>      <dbl>
    ##  1       1 2011-01-01      1     0     1       0       6          0
    ##  2       2 2011-01-02      1     0     1       0       0          0
    ##  3       3 2011-01-03      1     0     1       0       1          1
    ##  4       4 2011-01-04      1     0     1       0       2          1
    ##  5       5 2011-01-05      1     0     1       0       3          1
    ##  6       6 2011-01-06      1     0     1       0       4          1
    ##  7       7 2011-01-07      1     0     1       0       5          1
    ##  8       8 2011-01-08      1     0     1       0       6          0
    ##  9       9 2011-01-09      1     0     1       0       0          0
    ## 10      10 2011-01-10      1     0     1       0       1          1
    ## # … with 171 more rows, and 9 more variables: weathersit <dbl>,
    ## #   temp <dbl>, atemp <dbl>, hum <dbl>, windspeed <dbl>, casual <dbl>,
    ## #   registered <dbl>, count <dbl>, temp_c <dbl>
…
